{"items":[{
  "id": 205374,
  "courtType": "CONSTITUTIONAL_TRIBUNAL",
  "courtCases": [
    {
      "caseNumber": "ex 123"
    }
  ],
  "judgmentType": "SENTENCE",
  "judges": [
    {
      "name": "Andrzej Kabat",
      "function": null,
      "specialRoles": [
        "REPORTING_JUDGE"
      ]
    },
    {
      "name": "Kazimierz Buchała",
      "function": null,
      "specialRoles": [
        "PRESIDING_JUDGE"
      ]
    },
    {
      "name": "Stanisław Pawela",
      "function": null,
      "specialRoles": [

      ]
    }
  ],
  "source": {
    "code": "CONSTITUTIONAL_TRIBUNAL",
    "judgmentUrl": "http://otk.trybunal.gov.pl/orzeczenia/teksty/otk/1986/U_03_86.doc",
    "judgmentId": "c9fd6921a25bf3b0911191e1ad06d1cb",
    "publisher": null,
    "reviser": null,
    "publicationDate": ""
  },
  "courtReporters": [
    "Jerzy Adam Porowski"
  ],
  "decision": null,
  "summary": null,
  "textContent": "Orzeczenie\nz dnia 16 czerwca 1986 r.\n/U 3/86 r./\n\n\nTrybunał Konstytucyjny w składzie: \n\nPrzewodniczący: \tSędzia TK Kazimierz Buchała \n\nSędziowie TK: \tAndrzej Kabat (sprawozdawca) \nStanisław Pawela \n\nProtokolant: \tJerzy Adam Porowski \n\n\npo rozpatrzeniu w dniu 16 czerwca 1986 r. na rozprawie, z udziałem uczestników postępowania umocowanych przedstawicieli: Rady Ministrów, Ministra Handlu Wewnętrznego i Usług oraz Prokuratora Generalnego PRL, sprawy z wniosku Komitetu Wykonawczego Rady Krajowej Patriotycznego Ruchu Odrodzenia Narodowego o wydanie orzeczenia stwierdzającego niezgodność: \n\n1) przepisu § 2 ust. 2 rozporządzenia Rady Ministrów z dnia 28 października 1983 r. ...",
  "legalBases": [

  ],
  "referencedRegulations": [
    {
      "journalTitle": "Rozporządzenie Rady Ministrów z dnia 28 października 1983 r. w sprawie określenia liczby punktów sprzedaży napojów alkoholowych.",
      "journalNo": 60,
      "journalYear": 1983,
      "journalEntry": 273,
      "text": "Rozporządzenie Rady Ministrów z dnia 28 października 1983 r. w sprawie określenia liczby punktów sprzedaży napojów alkoholowych (Dz. U. z 1983 r. Nr 60 poz. 273 - § 1, § 2 ust. 2)"
    },
    {
      "journalTitle": "Ustawa z dnia 26 października 1982 r. o wychowaniu w trzeźwości i przeciwdziałaniu alkoholizmowi",
      "journalNo": 35,
      "journalYear": 1982,
      "journalEntry": 230,
      "text": "Ustawa z dnia 26 października 1982 r. o wychowaniu w trzeźwości i przeciwdziałaniu alkoholizmowi (Dz. U. z 1982 r. Nr 35 poz. 230 - art. 3 ust. 1, art. 3 ust. 2, art. 12 ust. 1)"
    },
    {
      "journalTitle": "Uchwała Sejmu Polskiej Rzeczypospolitej Ludowej z dnia 31 lipca 1985 r. w sprawie szczegółowego trybu postępowania przed Trybunałem Konstytucyjnym.",
      "journalNo": 39,
      "journalYear": 1985,
      "journalEntry": 184,
      "text": "Uchwała Sejmu Polskiej Rzeczypospolitej Ludowej z dnia 31 lipca 1985 r. w sprawie szczegółowego trybu postępowania przed Trybunałem Konstytucyjnym (Dz. U. z 1985 r. Nr 39 poz. 184 - art. 42 ust. 1 pkt 6)"
    }
  ],
  "keywords": [

  ],
  "referencedCourtCases": [

  ],
  "receiptDate": "",
  "meansOfAppeal": null,
  "judgmentResult": null,
  "lowerCourtJudgments": [

  ],
  "dissentingOpinions": [

  ],
  "judgmentDate": "1986-06-16"
},
{
  "id": 205374,
  "courtType": "CONSTITUTIONAL_TRIBUNAL",
  "courtCases": [
    {
      "caseNumber": "U 3/86112"
    }
  ],
  "judgmentType": "SENTENCE",
  "judges": [
    {
      "name": "Andrzej Kabat",
      "function": null,
      "specialRoles": [
        "REPORTING_JUDGE"
      ]
    },
    {
      "name": "Kazimierz Buchała",
      "function": null,
      "specialRoles": [
        "PRESIDING_JUDGE"
      ]
    },
    {
      "name": "Stanisław Pawela",
      "function": null,
      "specialRoles": [

      ]
    }
  ],
  "source": {
    "code": "CONSTITUTIONAL_TRIBUNAL",
    "judgmentUrl": "http://otk.trybunal.gov.pl/orzeczenia/teksty/otk/1986/U_03_86.doc",
    "judgmentId": "c9fd6921a25bf3b0911191e1ad06d1cb",
    "publisher": null,
    "reviser": null,
    "publicationDate": ""
  },
  "courtReporters": [
    "Jerzy Adam Porowski"
  ],
  "decision": null,
  "summary": null,
  "textContent": "Orzeczenie\nz dnia 16 czerwca 1986 r.\n/U 3/86 r./\n\n\nTrybunał Konstytucyjny w składzie: \n\nPrzewodniczący: \tSędzia TK Kazimierz Buchała \n\nSędziowie TK: \tAndrzej Kabat (sprawozdawca) \nStanisław Pawela \n\nProtokolant: \tJerzy Adam Porowski \n\n\npo rozpatrzeniu w dniu 16 czerwca 1986 r. na rozprawie, z udziałem uczestników postępowania umocowanych przedstawicieli: Rady Ministrów, Ministra Handlu Wewnętrznego i Usług oraz Prokuratora Generalnego PRL, sprawy z wniosku Komitetu Wykonawczego Rady Krajowej Patriotycznego Ruchu Odrodzenia Narodowego o wydanie orzeczenia stwierdzającego niezgodność: \n\n1) przepisu § 2 ust. 2 rozporządzenia Rady Ministrów z dnia 28 października 1983 r. ...",
  "legalBases": [

  ],
  "referencedRegulations": [
    {
      "journalTitle": "Rozporządzenie Rady Ministrów z dnia 28 października 1983 r. w sprawie określenia liczby punktów sprzedaży napojów alkoholowych.",
      "journalNo": 60,
      "journalYear": 1983,
      "journalEntry": 273,
      "text": "Rozporządzenie Rady Ministrów z dnia 28 października 1983 r. w sprawie określenia liczby punktów sprzedaży napojów alkoholowych (Dz. U. z 1983 r. Nr 60 poz. 273 - § 1, § 2 ust. 2)"
    },
    {
      "journalTitle": "Ustawa z dnia 26 października 1982 r. o wychowaniu w trzeźwości i przeciwdziałaniu alkoholizmowi",
      "journalNo": 35,
      "journalYear": 1982,
      "journalEntry": 230,
      "text": "Ustawa z dnia 26 października 1982 r. o wychowaniu w trzeźwości i przeciwdziałaniu alkoholizmowi (Dz. U. z 1982 r. Nr 35 poz. 230 - art. 3 ust. 1, art. 3 ust. 2, art. 12 ust. 1)"
    },
    {
      "journalTitle": "Uchwała Sejmu Polskiej Rzeczypospolitej Ludowej z dnia 31 lipca 1985 r. w sprawie szczegółowego trybu postępowania przed Trybunałem Konstytucyjnym.",
      "journalNo": 39,
      "journalYear": 1985,
      "journalEntry": 184,
      "text": "Uchwała Sejmu Polskiej Rzeczypospolitej Ludowej z dnia 31 lipca 1985 r. w sprawie szczegółowego trybu postępowania przed Trybunałem Konstytucyjnym (Dz. U. z 1985 r. Nr 39 poz. 184 - art. 42 ust. 1 pkt 6)"
    }
  ],
  "keywords": [

  ],
  "referencedCourtCases": [

  ],
  "receiptDate": "",
  "meansOfAppeal": null,
  "judgmentResult": null,
  "lowerCourtJudgments": [

  ],
  "dissentingOpinions": [

  ],
  "judgmentDate": "1986-06-16"
}
]}